{
	"0": {
		"refMenu": "M-AZEMenu1",
		"refRestaurant": "L'azerty",
		"libelle": "Menu1",
		"description": "Un oeuf et un coca",
		"preparation": "00:45:00",
		"prix": "10.00"
	},
	"1": {
		"refMenu": "M-AZEMenu2",
		"refRestaurant": "L'azerty",
		"libelle": "Menu2",
		"description": "Un oeuf et un coca",
		"preparation": "00:45:00",
		"prix": "10.00"
	},
	"2": {
		"refMenu": "M-AZEMenu3",
		"refRestaurant": "L'azerty",
		"libelle": "Menu3",
		"description": "Un oeuf et un coca",
		"preparation": "00:45:00",
		"prix": "10.00"
	}
}
